{
  "project_info": {
    "project_number": "281224305911",
    "firebase_url": "https://p8-uts.firebaseio.com",
    "project_id": "p8-uts",
    "storage_bucket": "p8-uts.appspot.com"
  },
  "client": [
    {
      "client_info": {
        "mobilesdk_app_id": "1:281224305911:android:bb6a2b104e5991f87847f2",
        "android_client_info": {
          "package_name": "uts.pendataanukmseni.a034_056_p8_uts"
        }
      },
      "oauth_client": [
        {
          "client_id": "281224305911-c93dnbci0q7oiijt2cnempf23jkpugh0.apps.googleusercontent.com",
          "client_type": 3
        }
      ],
      "api_key": [
        {
          "current_key": "AIzaSyAgoLEbcYsJCTNiOF91OxIoyhi24rJ0eP8"
        }
      ],
      "services": {
        "appinvite_service": {
          "other_platform_oauth_client": [
            {
              "client_id": "281224305911-c93dnbci0q7oiijt2cnempf23jkpugh0.apps.googleusercontent.com",
              "client_type": 3
            }
          ]
        }
      }
    }
  ],
  "configuration_version": "1"
}